<svg width="500" height="500" viewBox="0 0 500 500" fill="none" xmlns="http://www.w3.org/2000/svg">
<g clip-path="url(#clip0)">
<path d="M500 461.4H0V461.65H500V461.4Z" fill="#E6E6E6"/>
<path d="M468.4 470.22H449.63V470.47H468.4V470.22Z" fill="#E6E6E6"/>
<path d="M381.76 477.08H373.07V477.33H381.76V477.08Z" fill="#E6E6E6"/>
<path d="M299.32 473.63H279.96V473.88H299.32V473.63Z" fill="#E6E6E6"/>
<path d="M124.12 473.5H80.9302V473.75H124.12V473.5Z" fill="#E6E6E6"/>
<path d="M72.0302 473.5H65.7002V473.75H72.0302V473.5Z" fill="#E6E6E6"/>
<path d="M282.98 467.58H189.3V467.83H282.98V467.58Z" fill="#E6E6E6"/>
<path d="M237 416.8H43.91C42.3973 416.797 40.9475 416.195 39.8788 415.124C38.8102 414.053 38.21 412.603 38.21 411.09V139.66C38.2231 138.156 38.8292 136.718 39.8964 135.658C40.9637 134.598 42.4059 134.003 43.91 134H237C238.514 134 239.967 134.602 241.038 135.672C242.108 136.743 242.71 138.196 242.71 139.71V411.09C242.71 412.604 242.108 414.057 241.038 415.128C239.967 416.198 238.514 416.8 237 416.8ZM43.91 134.2C42.4636 134.203 41.0774 134.779 40.0556 135.803C39.0338 136.826 38.46 138.214 38.46 139.66V411.09C38.46 412.536 39.0338 413.924 40.0556 414.947C41.0774 415.971 42.4636 416.547 43.91 416.55H237C238.447 416.547 239.834 415.971 240.858 414.948C241.881 413.924 242.457 412.537 242.46 411.09V139.66C242.457 138.213 241.881 136.825 240.858 135.802C239.834 134.779 238.447 134.203 237 134.2H43.91Z" fill="#E6E6E6"/>
<path d="M453.31 416.8H260.21C258.696 416.797 257.246 416.195 256.175 415.125C255.105 414.054 254.503 412.604 254.5 411.09V139.66C254.516 138.155 255.124 136.717 256.193 135.658C257.262 134.598 258.705 134.003 260.21 134H453.31C454.812 134.005 456.252 134.602 457.317 135.662C458.382 136.721 458.987 138.158 459 139.66V411.09C459 412.601 458.401 414.05 457.335 415.121C456.268 416.191 454.821 416.795 453.31 416.8ZM260.21 134.2C258.763 134.203 257.375 134.779 256.352 135.802C255.329 136.825 254.753 138.213 254.75 139.66V411.09C254.753 412.537 255.329 413.924 256.352 414.948C257.375 415.971 258.763 416.547 260.21 416.55H453.31C454.757 416.547 456.145 415.971 457.168 414.948C458.191 413.924 458.767 412.537 458.77 411.09V139.66C458.767 138.213 458.191 136.825 457.168 135.802C456.145 134.779 454.757 134.203 453.31 134.2H260.21Z" fill="#E6E6E6"/>
<path d="M260.96 152.68H58.71V296.81H260.96V152.68Z" fill="#FAFAFA"/>
<path d="M264.7 152.68H60.46V296.81H264.7V152.68Z" fill="#F5F5F5"/>
<path d="M259.46 290.92V158.56H65.7V290.92H259.46Z" fill="#FAFAFA"/>
<path d="M100.98 290.92L131.72 158.56H172.02L141.28 290.92H100.98Z" fill="white"/>
<path d="M147.8 290.92L178.55 158.56H196.75L166 290.92H147.8Z" fill="white"/>
<path d="M259.46 290.92V158.56H258.79V290.92H259.46Z" fill="#FAFAFA"/>
<path d="M54.7798 152.44V209.56H69.8898C69.8898 209.56 96.9998 191.85 103.21 155.42C103.36 154.548 103.318 153.653 103.085 152.798C102.853 151.944 102.436 151.151 101.864 150.475C101.292 149.8 100.579 149.257 99.7747 148.887C98.9707 148.516 98.0952 148.326 97.2098 148.33H58.8898C57.7997 148.33 56.7544 148.763 55.9836 149.534C55.2128 150.305 54.7798 151.35 54.7798 152.44Z" fill="#E0E0E0"/>
<path d="M54.7798 314.44V214.17H69.8898C69.8898 214.17 100.56 273.22 104.11 314.44H54.7798Z" fill="#E0E0E0"/>
<path d="M69.4498 209.56H55.3298C54.4959 209.56 53.8198 210.236 53.8198 211.07V212.66C53.8198 213.494 54.4959 214.17 55.3298 214.17H69.4498C70.2838 214.17 70.9598 213.494 70.9598 212.66V211.07C70.9598 210.236 70.2838 209.56 69.4498 209.56Z" fill="#F5F5F5"/>
<path d="M269 152.44V209.56H253.86C253.86 209.56 226.71 191.85 220.54 155.42C220.391 154.548 220.435 153.654 220.668 152.8C220.902 151.947 221.319 151.154 221.89 150.479C222.462 149.803 223.174 149.261 223.977 148.89C224.78 148.519 225.655 148.328 226.54 148.33H264.9C265.987 148.335 267.029 148.77 267.797 149.54C268.565 150.31 268.997 151.353 269 152.44Z" fill="#E0E0E0"/>
<path d="M269 314.44V214.17H253.86C253.86 214.17 223.2 273.22 219.64 314.44H269Z" fill="#E0E0E0"/>
<path d="M254.3 214.16H268.42C269.254 214.16 269.93 213.484 269.93 212.65V211.06C269.93 210.226 269.254 209.55 268.42 209.55H254.3C253.466 209.55 252.79 210.226 252.79 211.06V212.65C252.79 213.484 253.466 214.16 254.3 214.16Z" fill="#F5F5F5"/>
<path d="M264.43 332.66H231.2V461.4H264.43V332.66Z" fill="#FAFAFA"/>
<path d="M255.56 461.4H264.43V446.53H246.26L255.56 461.4Z" fill="#F4F8FF"/>
<path d="M105.45 332.66H72.2202V461.4H105.45V332.66Z" fill="#E0E0E0"/>
<path d="M264.43 332.66H97.71V456.28H264.43V332.66Z" fill="#FAFAFA"/>
<path d="M147.8 310.8C147.8 322.8 159.36 332.66 173.5 332.66H186.26C200.39 332.66 211.95 322.82 211.95 310.8H147.8Z" fill="#EBEBEB"/>
<path d="M140.4 283.33H164.4C164.4 283.33 160.23 294.33 160.23 300.81C160.23 307.29 178.49 332.66 152.4 332.66C126.31 332.66 144.57 307.28 144.57 300.81C144.57 294.34 140.4 283.33 140.4 283.33Z" fill="#E0E0E0"/>
<path d="M257.55 340.19H104.59V371.36H257.55V340.19Z" fill="#EBEBEB"/>
<path d="M106.58 461.4H97.71V446.53H115.89L106.58 461.4Z" fill="#FAFAFA"/>
<path d="M176.37 355.77C176.37 356.699 176.646 357.608 177.162 358.381C177.679 359.154 178.413 359.756 179.272 360.112C180.13 360.468 181.075 360.561 181.987 360.38C182.899 360.198 183.736 359.751 184.394 359.093C185.051 358.436 185.498 357.598 185.68 356.687C185.861 355.775 185.768 354.83 185.412 353.971C185.057 353.112 184.454 352.378 183.681 351.862C182.908 351.345 182 351.07 181.07 351.07C179.824 351.07 178.628 351.565 177.747 352.446C176.865 353.328 176.37 354.523 176.37 355.77Z" fill="#FAFAFA"/>
<path d="M257.55 378.89H104.59V410.06H257.55V378.89Z" fill="#EBEBEB"/>
<path d="M176.37 394.47C176.37 395.4 176.646 396.308 177.162 397.081C177.679 397.854 178.413 398.457 179.272 398.812C180.13 399.168 181.075 399.261 181.987 399.08C182.899 398.898 183.736 398.451 184.394 397.793C185.051 397.136 185.498 396.299 185.68 395.387C185.861 394.475 185.768 393.53 185.412 392.671C185.057 391.813 184.454 391.079 183.681 390.562C182.908 390.046 182 389.77 181.07 389.77C179.824 389.77 178.628 390.265 177.747 391.147C176.865 392.028 176.37 393.224 176.37 394.47Z" fill="#FAFAFA"/>
<path d="M257.55 417.58H104.59V448.75H257.55V417.58Z" fill="#EBEBEB"/>
<path d="M181.07 437.87C183.666 437.87 185.77 435.766 185.77 433.17C185.77 430.574 183.666 428.47 181.07 428.47C178.474 428.47 176.37 430.574 176.37 433.17C176.37 435.766 178.474 437.87 181.07 437.87Z" fill="#FAFAFA"/>
<path d="M369.88 150.94H295.65V203.78H369.88V150.94Z" fill="#E0E0E0"/>
<path d="M375.94 150.94H299.87V203.78H375.94V150.94Z" fill="#F5F5F5"/>
<path d="M371.09 198.93V155.79H304.72V198.93H371.09Z" fill="white"/>
<path d="M359.41 186.36V168.35H316.4V186.36H359.41Z" fill="#F5F5F5"/>
<path d="M430.1 177.36H384.92V224.74H430.1V177.36Z" fill="#E0E0E0"/>
<path d="M436.18 177.36H389.15V224.74H436.18V177.36Z" fill="#F5F5F5"/>
<path d="M431.33 219.89V182.21H394V219.89H431.33Z" fill="white"/>
<path d="M405.68 201.05C405.68 199.386 406.34 197.79 407.516 196.613C408.692 195.435 410.286 194.773 411.95 194.77H413.37C415.034 194.773 416.629 195.435 417.804 196.613C418.98 197.79 419.64 199.386 419.64 201.05C419.64 202.713 418.98 204.308 417.804 205.484C416.628 206.659 415.033 207.32 413.37 207.32H412C411.173 207.327 410.352 207.169 409.585 206.857C408.819 206.545 408.122 206.084 407.534 205.501C406.947 204.918 406.48 204.225 406.162 203.461C405.844 202.697 405.68 201.878 405.68 201.05Z" fill="#F5F5F5"/>
<path d="M500 240.85H380.7H359.01V268.42H337.32V295.99H315.63V323.56H293.94V351.13H272.25V378.69H250.56V406.26H228.87V433.83H207.18V461.4H228.87H500V240.85Z" fill="#FAFAFA"/>
<path d="M328.58 433.83H204.95V442.1H328.58V433.83Z" fill="#EBEBEB"/>
<path d="M350.27 406.26H226.64V414.53H350.27V406.26Z" fill="#EBEBEB"/>
<path d="M371.96 378.69H248.33V386.96H371.96V378.69Z" fill="#EBEBEB"/>
<path d="M393.65 351.12H270.02V359.39H393.65V351.12Z" fill="#EBEBEB"/>
<path d="M415.34 323.56H291.71V331.83H415.34V323.56Z" fill="#EBEBEB"/>
<path d="M437.03 295.99H313.4V304.26H437.03V295.99Z" fill="#EBEBEB"/>
<path d="M458.72 268.42H335.09V276.69H458.72V268.42Z" fill="#EBEBEB"/>
<path d="M480.41 240.85H356.78V249.12H480.41V240.85Z" fill="#EBEBEB"/>
<path d="M478.31 240.85V268.42H456.62V295.99H434.93V323.56H413.24V351.13H391.55V378.69H369.86V406.26H348.17V433.83H326.48V461.4H348.17H500V268.42V240.85H478.31Z" fill="white"/>
<path d="M250 506.56C357.082 506.56 443.89 501.492 443.89 495.24C443.89 488.988 357.082 483.92 250 483.92C142.917 483.92 56.1099 488.988 56.1099 495.24C56.1099 501.492 142.917 506.56 250 506.56Z" fill="#F5F5F5"/>
<path d="M365.15 241C366.55 245.69 373.77 254.47 374.34 260.86C374.91 267.25 362.6 277.47 362.6 277.47C362.6 277.47 353.4 246.71 359.16 243.12C364.92 239.53 365.15 241 365.15 241Z" fill="#263238"/>
<path d="M339.87 274.23C337.69 276.05 335.55 277.58 333.32 279.15C331.09 280.72 328.79 282.15 326.45 283.49C324.101 284.879 321.681 286.145 319.2 287.28C317.94 287.85 316.69 288.41 315.39 288.9C314.75 289.16 314.1 289.41 313.44 289.63L311.44 290.33C309.73 290.808 307.941 290.937 306.18 290.71C304.708 290.538 303.25 290.257 301.82 289.87C299.153 289.132 296.543 288.203 294.01 287.09C289.092 284.943 284.348 282.419 279.82 279.54L281.69 276.06C284.05 277.06 286.47 278.06 288.87 278.93C291.27 279.8 293.69 280.72 296.11 281.47C298.469 282.243 300.874 282.871 303.31 283.35C304.428 283.569 305.561 283.706 306.7 283.76C307.549 283.826 308.402 283.738 309.22 283.5C311.501 282.627 313.732 281.625 315.9 280.5C317.01 279.92 318.11 279.33 319.19 278.69C320.27 278.05 321.37 277.43 322.44 276.77C324.59 275.44 326.69 274.03 328.77 272.58C330.85 271.13 332.92 269.58 334.77 268.11L339.87 274.23Z" fill="#E58A7B"/>
<path d="M345.15 263.58C342.67 261.64 332.41 267.99 329.3 270.64L331.57 284.37C331.57 284.37 346.32 278.19 347.2 273.97C348.13 269.56 347 265.06 345.15 263.58Z" fill="#F48482"/>
<path opacity="0.2" d="M345.15 263.58C342.67 261.64 332.41 267.99 329.3 270.64L331.57 284.37C331.57 284.37 346.32 278.19 347.2 273.97C348.13 269.56 347 265.06 345.15 263.58Z" fill="black"/>
<path d="M379.66 305.13L348.52 311.2C332.43 267.63 335.93 266.2 335.93 266.2C338.193 264.957 340.531 263.854 342.93 262.9L343.35 262.74C345.35 262.01 345.75 261.9 348.41 261.12C352.99 260.03 357.26 259.12 362.55 258.37L363.55 258.23C364.55 258.11 365.46 258.01 366.38 257.92C367 257.85 367.62 257.81 368.21 257.77L370.21 257.66C373.63 257.49 376.08 257.54 376.08 257.54C375.13 284.75 376.67 292.56 379.66 305.13Z" fill="#F48482"/>
<path opacity="0.2" d="M379.66 305.13L348.52 311.2C332.43 267.63 335.93 266.2 335.93 266.2C338.193 264.957 340.531 263.854 342.93 262.9L343.35 262.74C345.35 262.01 345.75 261.9 348.41 261.12C352.99 260.03 357.26 259.12 362.55 258.37L363.55 258.23C364.55 258.11 365.46 258.01 366.38 257.92C367 257.85 367.62 257.81 368.21 257.77L370.21 257.66C373.63 257.49 376.08 257.54 376.08 257.54C375.13 284.75 376.67 292.56 379.66 305.13Z" fill="black"/>
<path d="M355.27 244.13C353.27 247.44 360.52 248.97 364.81 245.58C368.24 242.86 367.43 236.58 364.49 235.12C361.55 233.66 355.27 244.13 355.27 244.13Z" fill="#F48482"/>
<path opacity="0.4" d="M355.27 244.13C353.27 247.44 360.52 248.97 364.81 245.58C368.24 242.86 367.43 236.58 364.49 235.12C361.55 233.66 355.27 244.13 355.27 244.13Z" fill="black"/>
<path d="M385.58 485.47L377.79 486.05L374.94 468.12L382.73 467.54L385.58 485.47Z" fill="#E58A7B"/>
<path d="M440.68 460.41L434.07 464.57L422.3 450.61L428.91 446.44L440.68 460.41Z" fill="#E58A7B"/>
<path d="M374.94 468.12L376.52 478.08L384.2 476.79L382.74 467.55L374.94 468.12Z" fill="#CF6F64"/>
<path d="M428.92 446.45L422.3 450.61L427.18 456.39L433.94 452.4L428.92 446.45Z" fill="#CF6F64"/>
<path d="M349 311.2C349 311.2 348.89 373.02 353.94 396.3C359.2 420.52 374.67 475.62 374.67 475.62L385.89 474.17C385.89 474.17 377.12 418.51 373.38 394.44C369.31 368.21 371.81 306.76 371.81 306.76L349 311.2Z" fill="#F48482"/>
<path opacity="0.7" d="M349 311.2C349 311.2 348.89 373.02 353.94 396.3C359.2 420.52 374.67 475.62 374.67 475.62L385.89 474.17C385.89 474.17 377.12 418.51 373.38 394.44C369.31 368.21 371.81 306.76 371.81 306.76L349 311.2Z" fill="black"/>
<path opacity="0.5" d="M371.11 334.16L365.61 328.68C365.82 352.43 367.15 364.16 371.72 376.94C371 363.43 370.94 347.45 371.11 334.16Z" fill="black"/>
<path d="M356.74 309.6C356.74 309.6 373.51 360.69 381.83 390.12C390.61 421.17 424.27 455.51 424.27 455.51L433.93 449.93C433.93 449.93 410.93 417.33 402.47 388.36C385.27 329.55 392.34 317.09 379.65 305.13L356.74 309.6Z" fill="#F48482"/>
<path opacity="0.7" d="M356.74 309.6C356.74 309.6 373.51 360.69 381.83 390.12C390.61 421.17 424.27 455.51 424.27 455.51L433.93 449.93C433.93 449.93 410.93 417.33 402.47 388.36C385.27 329.55 392.34 317.09 379.65 305.13L356.74 309.6Z" fill="black"/>
<path d="M343.56 226.09C348.02 227.58 352.07 238.65 352.24 243.01C352.41 247.37 339.32 253.38 339.32 253.38C339.32 253.38 333.55 239.38 335.16 230.38C335.86 226.47 343.56 226.09 343.56 226.09Z" fill="#263238"/>
<path d="M282.35 276.43L277.06 270.67L275.33 277.89C275.33 277.89 279.09 281.21 282.13 280.07L282.35 276.43Z" fill="#E58A7B"/>
<path d="M271.7 269.02L268 271.96L275.33 277.89L277.06 270.67L271.7 269.02Z" fill="#E58A7B"/>
<path d="M432 463.08L438.18 456.85C438.287 456.743 438.428 456.679 438.579 456.668C438.729 456.657 438.879 456.7 439 456.79L444.63 460.97C444.769 461.079 444.884 461.217 444.966 461.374C445.048 461.531 445.096 461.703 445.106 461.88C445.117 462.057 445.089 462.234 445.026 462.399C444.963 462.565 444.865 462.715 444.74 462.84C442.54 464.97 441.38 465.89 438.66 468.63C436.99 470.32 434.72 472.95 432.41 475.28C430.1 477.61 427.67 475.44 428.41 474.28C431.78 469.01 431.18 467.04 431.41 464.36C431.445 463.876 431.654 463.421 432 463.08Z" fill="#263238"/>
<path d="M377.27 484.93H386.05C386.205 484.93 386.354 484.984 386.473 485.083C386.592 485.181 386.672 485.318 386.7 485.47L388.08 492.41C388.111 492.581 388.104 492.756 388.059 492.924C388.015 493.092 387.934 493.247 387.822 493.38C387.71 493.513 387.57 493.619 387.413 493.692C387.255 493.765 387.084 493.801 386.91 493.8C383.84 493.75 382.36 493.57 378.5 493.57C376.13 493.57 371.23 493.81 367.95 493.81C364.67 493.81 364.32 490.57 365.67 490.28C371.67 488.96 374.02 487.15 375.99 485.41C376.347 485.105 376.8 484.935 377.27 484.93Z" fill="#263238"/>
<g style="mix-blend-mode:multiply" opacity="0.27">
<path d="M377.09 273.31L372.29 276.17L377.83 297C376.62 290.69 377.16 283.76 377.09 273.31Z" fill="#F48482"/>
</g>
<path d="M349.81 240.79C353.22 243.64 358.17 247.79 364 242.94C369 238.76 372.5 227.79 363.53 227.39C358.84 227.18 349.81 240.79 349.81 240.79Z" fill="#263238"/>
<path d="M358.05 242.74C358.05 247.46 358.78 255.97 362.55 258.39C362.55 258.39 362.21 263.25 353.75 264.89C344.46 266.7 348.41 261.14 348.41 261.14C353.25 258.94 352.41 255.2 350.81 251.84L358.05 242.74Z" fill="#E58A7B"/>
<path d="M355.1 246.45L350.82 251.84C351.195 252.619 351.503 253.429 351.74 254.26C353.62 253.6 355.87 250.96 355.68 248.89C355.639 248.048 355.442 247.221 355.1 246.45Z" fill="#CF6F64"/>
<path d="M358.5 231.9C359.5 239.59 360.11 242.82 357.03 247.47C352.4 254.47 342.74 254.02 339.45 246.79C336.45 240.28 335.33 228.79 342.17 224.34C343.674 223.344 345.408 222.75 347.206 222.614C349.005 222.477 350.808 222.804 352.445 223.562C354.082 224.319 355.498 225.483 356.558 226.943C357.617 228.402 358.286 230.109 358.5 231.9Z" fill="#E58A7B"/>
<path d="M345.14 218.43C339.94 222.12 350.37 223.21 350.38 228.56C350.38 230.77 354.01 237.78 359.17 237.38L364.17 228.5C369.43 220 357 210 345.14 218.43Z" fill="#263238"/>
<path d="M345.14 218.43C335.99 217.95 332 225.23 333.05 231.77C339.433 230.178 346.036 229.654 352.59 230.22C365.13 231.5 345.14 218.43 345.14 218.43Z" fill="#263238"/>
<path d="M361 238.53C361.127 240.022 360.656 241.504 359.69 242.65C358.4 244.16 356.69 243.27 356.09 241.48C355.58 239.86 355.64 237.13 357.38 236.27C357.764 236.092 358.187 236.013 358.61 236.039C359.032 236.066 359.442 236.197 359.801 236.421C360.16 236.645 360.458 236.956 360.667 237.324C360.877 237.692 360.991 238.106 361 238.53Z" fill="#E58A7B"/>
<path d="M347.39 236.27C347.51 236.89 347.28 237.45 346.88 237.53C346.48 237.61 346.05 237.17 345.93 236.53C345.81 235.89 346.04 235.34 346.44 235.26C346.84 235.18 347.27 235.65 347.39 236.27Z" fill="#263238"/>
<path d="M340.4 237.63C340.52 238.25 340.29 238.82 339.89 238.9C339.49 238.98 339.06 238.54 338.94 237.9C338.82 237.26 339.05 236.71 339.45 236.64C339.85 236.57 340.28 237 340.4 237.63Z" fill="#263238"/>
<path d="M339.64 236.65L338.07 236.52C338.07 236.52 339.06 237.53 339.64 236.65Z" fill="#263238"/>
<path d="M342.46 238.34C342.179 239.855 341.695 241.325 341.02 242.71C341.379 242.877 341.769 242.964 342.165 242.964C342.561 242.964 342.951 242.877 343.31 242.71L342.46 238.34Z" fill="#DF5753"/>
<path d="M345.92 244.71C345.877 244.711 345.835 244.696 345.802 244.668C345.769 244.641 345.747 244.602 345.74 244.56C345.736 244.536 345.736 244.512 345.742 244.489C345.747 244.465 345.757 244.443 345.771 244.423C345.785 244.404 345.803 244.387 345.823 244.375C345.844 244.362 345.866 244.354 345.89 244.35C346.663 244.215 347.394 243.901 348.022 243.432C348.651 242.963 349.161 242.352 349.51 241.65C349.519 241.628 349.533 241.607 349.55 241.59C349.567 241.573 349.587 241.56 349.609 241.55C349.632 241.541 349.656 241.536 349.68 241.536C349.704 241.536 349.728 241.541 349.75 241.55C349.773 241.559 349.793 241.573 349.81 241.59C349.827 241.607 349.841 241.627 349.85 241.649C349.859 241.672 349.864 241.695 349.864 241.72C349.864 241.744 349.859 241.768 349.85 241.79C349.484 242.553 348.939 243.217 348.262 243.726C347.585 244.234 346.795 244.572 345.96 244.71H345.92Z" fill="#263238"/>
<path d="M349 233.61C348.908 233.611 348.82 233.579 348.75 233.52C348.413 233.2 348.006 232.965 347.561 232.833C347.116 232.7 346.646 232.676 346.19 232.76C346.089 232.785 345.982 232.769 345.893 232.716C345.804 232.662 345.74 232.576 345.715 232.475C345.69 232.374 345.706 232.268 345.759 232.178C345.812 232.089 345.899 232.025 346 232C346.576 231.887 347.172 231.912 347.737 232.073C348.302 232.235 348.82 232.529 349.25 232.93C349.318 232.999 349.357 233.093 349.357 233.19C349.357 233.287 349.318 233.381 349.25 233.45C349.222 233.493 349.185 233.529 349.142 233.557C349.099 233.585 349.05 233.603 349 233.61Z" fill="#263238"/>
<path d="M336.53 235C336.484 235.01 336.436 235.01 336.39 235C336.344 234.982 336.303 234.954 336.268 234.919C336.233 234.884 336.205 234.843 336.187 234.797C336.168 234.752 336.159 234.703 336.159 234.653C336.16 234.604 336.17 234.555 336.19 234.51C336.402 233.963 336.743 233.475 337.183 233.087C337.624 232.699 338.15 232.422 338.72 232.28C338.768 232.27 338.817 232.27 338.866 232.28C338.914 232.29 338.959 232.309 339 232.337C339.04 232.365 339.074 232.401 339.1 232.443C339.126 232.485 339.143 232.532 339.15 232.58C339.16 232.627 339.16 232.676 339.151 232.724C339.142 232.771 339.123 232.817 339.096 232.857C339.069 232.897 339.034 232.931 338.994 232.958C338.953 232.984 338.907 233.002 338.86 233.01C338.41 233.133 337.996 233.358 337.648 233.669C337.301 233.98 337.031 234.367 336.86 234.8C336.828 234.86 336.78 234.91 336.722 234.945C336.664 234.98 336.598 234.999 336.53 235Z" fill="#263238"/>
<path d="M429.68 466.71C429.509 466.706 429.341 466.66 429.191 466.576C429.041 466.492 428.914 466.374 428.82 466.23C428.749 466.145 428.701 466.044 428.682 465.935C428.663 465.826 428.672 465.714 428.71 465.61C429.06 464.67 431.82 464.07 432.13 464C432.166 463.994 432.203 463.998 432.237 464.012C432.271 464.026 432.299 464.05 432.32 464.08C432.341 464.109 432.353 464.144 432.353 464.18C432.353 464.216 432.341 464.251 432.32 464.28C431.78 465.17 430.72 466.66 429.73 466.71H429.68ZM431.77 464.46C430.68 464.74 429.24 465.24 429.06 465.74C429.042 465.786 429.039 465.836 429.049 465.884C429.06 465.932 429.085 465.976 429.12 466.01C429.182 466.113 429.27 466.198 429.376 466.256C429.481 466.314 429.6 466.343 429.72 466.34C430.25 466.31 431 465.62 431.77 464.46Z" fill="#F48482"/>
<path d="M431.32 464.46C430.32 464.46 429.07 464.21 428.7 463.67C428.618 463.547 428.58 463.4 428.593 463.253C428.605 463.105 428.668 462.967 428.77 462.86C428.858 462.748 428.968 462.657 429.094 462.591C429.22 462.526 429.358 462.488 429.5 462.48H429.58C430.7 462.48 432.24 463.99 432.3 464.05C432.324 464.073 432.341 464.101 432.35 464.133C432.359 464.165 432.359 464.198 432.35 464.23C432.341 464.261 432.324 464.289 432.302 464.312C432.279 464.334 432.251 464.351 432.22 464.36C431.925 464.431 431.623 464.465 431.32 464.46ZM429.58 462.85H429.52C429.43 462.853 429.342 462.876 429.263 462.918C429.183 462.959 429.114 463.018 429.06 463.09C428.92 463.28 428.96 463.39 429.01 463.46C429.31 463.92 430.84 464.18 431.78 464.07C431.18 463.459 430.416 463.035 429.58 462.85Z" fill="#F48482"/>
<path d="M374.4 486.3C373.728 486.36 373.055 486.191 372.49 485.82C372.357 485.716 372.252 485.58 372.185 485.424C372.119 485.269 372.093 485.099 372.11 484.93C372.11 484.83 372.135 484.731 372.184 484.643C372.233 484.555 372.304 484.482 372.39 484.43C373.31 483.89 376.53 485.49 376.89 485.67C376.924 485.688 376.952 485.716 376.97 485.75C376.987 485.784 376.995 485.822 376.99 485.86C376.985 485.898 376.97 485.933 376.945 485.962C376.92 485.99 376.887 486.01 376.85 486.02C376.044 486.189 375.224 486.283 374.4 486.3ZM372.92 484.68C372.803 484.673 372.685 484.697 372.58 484.75C372.546 484.768 372.519 484.796 372.501 484.83C372.483 484.864 372.476 484.902 372.48 484.94C372.47 485.053 372.488 485.166 372.531 485.271C372.575 485.375 372.643 485.468 372.73 485.54C373.23 485.97 374.52 486.04 376.22 485.76C375.188 485.219 374.073 484.854 372.92 484.68Z" fill="#F48482"/>
<path d="M376.81 486H376.74C375.74 485.57 373.81 483.87 373.95 483C373.95 482.8 374.13 482.54 374.63 482.49H374.78C376.52 482.49 376.97 485.67 376.99 485.81C376.995 485.843 376.991 485.877 376.978 485.909C376.966 485.94 376.946 485.968 376.92 485.99C376.885 486.003 376.847 486.007 376.81 486ZM374.81 482.84H374.7C374.38 482.84 374.36 482.99 374.36 483.03C374.28 483.56 375.6 484.89 376.6 485.48C376.4 484.7 375.89 482.86 374.77 482.86L374.81 482.84Z" fill="#F48482"/>
<path d="M346.63 235.29L345.06 235.15C345.06 235.15 346.05 236.17 346.63 235.29Z" fill="#263238"/>
<path d="M353.5 271.54C336.77 275.27 341.94 265.15 342.94 262.92L343.36 262.76C345.36 262.03 345.76 261.92 348.42 261.14C353.062 259.887 357.787 258.968 362.56 258.39L363.56 258.25C364.56 258.12 365.47 258.02 366.39 257.94C367.01 257.87 367.63 257.83 368.22 257.79L370.22 257.67C370.56 259.23 371.39 267.57 353.5 271.54Z" fill="#E58A7B"/>
<path d="M379.76 303.21L381.71 305.73C381.86 305.92 381.65 306.19 381.29 306.26L348.63 312.62C348.35 312.68 348.09 312.62 348.04 312.41L347.21 309.68C347.21 309.49 347.37 309.28 347.67 309.22L379.21 303.08C379.305 303.052 379.406 303.049 379.502 303.072C379.599 303.095 379.688 303.142 379.76 303.21Z" fill="#26395A"/>
<path d="M376.21 307.56L377.06 307.4C377.23 307.4 377.34 307.26 377.31 307.15L376.21 303.61C376.21 303.5 376.01 303.45 375.84 303.48L375 303.64C374.83 303.64 374.72 303.79 374.75 303.89L375.85 307.44C375.88 307.54 376.05 307.6 376.21 307.56Z" fill="#F48482"/>
<path d="M357.08 319.36L350.57 316.94L351.57 323.13C351.57 323.13 356.29 324.83 358.7 322.65L357.08 319.36Z" fill="#E58A7B"/>
<path d="M344.37 318.58L342.82 322.64L351.57 323.13L350.57 316.94L344.37 318.58Z" fill="#E58A7B"/>
<path d="M351.06 312.46L351.91 312.3C352.07 312.3 352.19 312.16 352.15 312.05L351.05 308.51C351.05 308.4 350.86 308.35 350.69 308.38L349.84 308.54C349.67 308.54 349.56 308.69 349.6 308.79L350.7 312.34C350.73 312.44 350.89 312.5 351.06 312.46Z" fill="#F48482"/>
<path d="M363.64 310L364.48 309.84C364.65 309.84 364.76 309.7 364.73 309.59L363.63 306.05C363.63 305.94 363.43 305.89 363.26 305.92L362.42 306.08C362.25 306.08 362.14 306.23 362.17 306.33L363.27 309.88C363.31 309.938 363.368 309.981 363.435 310.003C363.501 310.025 363.574 310.024 363.64 310Z" fill="#F48482"/>
<path d="M360.08 254.42C360.79 254.15 361.68 256.65 361.46 256.97C360.95 257.7 351.61 260.25 351.19 258.82C351.164 258.045 351.283 257.271 351.54 256.54C351.81 256.06 353.88 256.94 360.08 254.42Z" fill="#F48482"/>
<path d="M358.5 254.48C358.86 253.65 359.89 252.32 360.79 253.08C361.69 253.84 362.07 255.48 361.48 255.75C360.89 256.02 357.88 255.87 358.5 254.48Z" fill="#F48482"/>
<path d="M360.41 254.91C361.03 254.25 362.41 253.34 363.04 254.36C363.67 255.38 363.44 257.05 362.8 257.1C362.16 257.15 359.36 256 360.41 254.91Z" fill="#F48482"/>
<path d="M360.75 254.76C360.7 254.228 360.804 253.693 361.051 253.22C361.297 252.746 361.676 252.354 362.14 252.09C363.28 251.35 364.39 250.87 364.83 250.09C365.02 250.821 365.057 251.584 364.94 252.33C364.71 253.4 361.16 254.22 361.4 255.15L360.75 254.76Z" fill="#F48482"/>
<path d="M360.6 254.71C360.269 254.29 360.066 253.784 360.016 253.251C359.967 252.719 360.072 252.184 360.32 251.71C360.86 250.47 361.54 249.47 361.5 248.59C362.055 249.101 362.501 249.721 362.81 250.41C363.19 251.41 360.66 254.04 361.37 254.7L360.6 254.71Z" fill="#F48482"/>
<path d="M430.15 450.06C430.129 450.059 430.11 450.054 430.092 450.043C430.075 450.033 430.06 450.018 430.05 450C429.82 449.68 406.96 417.06 398.58 388.4C393.111 370.016 388.908 351.279 386 332.32C384.27 321.64 383.22 315.19 379.78 309.9C379.757 309.876 379.744 309.844 379.744 309.81C379.744 309.777 379.757 309.744 379.78 309.72C379.803 309.7 379.834 309.688 379.865 309.688C379.896 309.688 379.926 309.7 379.95 309.72C383.43 315.06 384.48 321.53 386.21 332.24C389.131 351.172 393.341 369.882 398.81 388.24C407.18 416.86 430.02 449.44 430.25 449.77C430.269 449.795 430.279 449.824 430.279 449.855C430.279 449.886 430.269 449.916 430.25 449.94C430.248 449.968 430.238 449.995 430.22 450.017C430.202 450.038 430.177 450.054 430.15 450.06Z" fill="#F48482"/>
<path opacity="0.4" d="M430.15 450.06C430.129 450.059 430.11 450.054 430.092 450.043C430.075 450.033 430.06 450.018 430.05 450C429.82 449.68 406.96 417.06 398.58 388.4C393.111 370.016 388.908 351.279 386 332.32C384.27 321.64 383.22 315.19 379.78 309.9C379.757 309.876 379.744 309.844 379.744 309.81C379.744 309.777 379.757 309.744 379.78 309.72C379.803 309.7 379.834 309.688 379.865 309.688C379.896 309.688 379.926 309.7 379.95 309.72C383.43 315.06 384.48 321.53 386.21 332.24C389.131 351.172 393.341 369.882 398.81 388.24C407.18 416.86 430.02 449.44 430.25 449.77C430.269 449.795 430.279 449.824 430.279 449.855C430.279 449.886 430.269 449.916 430.25 449.94C430.248 449.968 430.238 449.995 430.22 450.017C430.202 450.038 430.177 450.054 430.15 450.06Z" fill="black"/>
<path d="M387.9 474.13L372.62 476.11L371.62 471.85L387.53 468.48L387.9 474.13Z" fill="#F48482"/>
<path d="M434.74 449.59L423.47 456.1L419.67 452.85L432 444.51L434.74 449.59Z" fill="#F48482"/>
<path d="M381.85 268.13C382.39 270.91 382.7 273.53 383 276.24C383.3 278.95 383.41 281.63 383.49 284.34C383.57 287.071 383.51 289.805 383.31 292.53C383.2 293.9 383.08 295.27 382.89 296.65C382.81 297.33 382.72 298.02 382.59 298.71L382.22 300.83C381.81 302.558 381.059 304.187 380.01 305.62C379.15 306.826 378.201 307.966 377.17 309.03C375.241 311.012 373.168 312.85 370.97 314.53C366.718 317.804 362.218 320.743 357.51 323.32L355.37 320C357.37 318.41 359.37 316.77 361.37 315.1C363.37 313.43 365.27 311.74 367.1 309.98C368.909 308.286 370.615 306.486 372.21 304.59C372.943 303.713 373.611 302.783 374.21 301.81C374.683 301.101 375.021 300.311 375.21 299.48C375.535 297.052 375.726 294.609 375.78 292.16C375.78 290.91 375.78 289.66 375.78 288.41C375.78 287.16 375.73 285.89 375.67 284.63C375.55 282.11 375.32 279.63 375.05 277.07C374.78 274.51 374.43 271.98 374.05 269.61L381.85 268.13Z" fill="#E58A7B"/>
<path d="M380.64 259.63C384.91 263.09 383.89 273.37 383.89 273.37L369.49 278.11C369.49 278.11 370.15 266.26 370.87 262C371.71 256.93 376.43 256.22 380.64 259.63Z" fill="#F48482"/>
<path opacity="0.2" d="M380.64 259.63C384.91 263.09 383.89 273.37 383.89 273.37L369.49 278.11C369.49 278.11 370.15 266.26 370.87 262C371.71 256.93 376.43 256.22 380.64 259.63Z" fill="black"/>
<path d="M190.41 302.53C189.851 300.105 188.487 297.942 186.54 296.392C184.593 294.843 182.178 294 179.69 294H99.6899C96.7726 294 93.9747 295.159 91.9118 297.222C89.8489 299.285 88.6899 302.083 88.6899 305V482.82C88.6899 485.737 89.8489 488.535 91.9118 490.598C93.9747 492.661 96.7726 493.82 99.6899 493.82H353.69C356.607 493.82 359.405 492.661 361.468 490.598C363.531 488.535 364.69 485.737 364.69 482.82V333.45C364.69 330.533 363.531 327.735 361.468 325.672C359.405 323.609 356.607 322.45 353.69 322.45H215.44C209.63 322.451 203.991 320.482 199.444 316.863C194.898 313.245 191.713 308.192 190.41 302.53Z" fill="#F48482"/>
<path opacity="0.6" d="M190.41 302.53C189.851 300.105 188.487 297.942 186.54 296.392C184.593 294.843 182.178 294 179.69 294H99.6899C96.7726 294 93.9747 295.159 91.9118 297.222C89.8489 299.285 88.6899 302.083 88.6899 305V482.82C88.6899 485.737 89.8489 488.535 91.9118 490.598C93.9747 492.661 96.7726 493.82 99.6899 493.82H353.69C356.607 493.82 359.405 492.661 361.468 490.598C363.531 488.535 364.69 485.737 364.69 482.82V333.45C364.69 330.533 363.531 327.735 361.468 325.672C359.405 323.609 356.607 322.45 353.69 322.45H215.44C209.63 322.451 203.991 320.482 199.444 316.863C194.898 313.245 191.713 308.192 190.41 302.53Z" fill="black"/>
<path opacity="0.22" d="M162.17 247.15L169.3 270.24C170.21 273.179 172.249 275.636 174.97 277.072C177.691 278.508 180.87 278.806 183.81 277.9L206.89 270.77L162.17 247.15Z" fill="#F48482"/>
<path d="M162.17 247.15L79.6698 272.64C78.2134 273.087 76.8595 273.817 75.6856 274.789C74.5117 275.76 73.5408 276.953 72.8284 278.3C72.116 279.646 71.6762 281.12 71.534 282.637C71.3918 284.154 71.5501 285.684 71.9998 287.14L119.1 439.62C119.549 441.076 120.281 442.429 121.254 443.602C122.226 444.775 123.421 445.744 124.768 446.456C126.115 447.167 127.59 447.606 129.107 447.747C130.624 447.889 132.154 447.73 133.61 447.28L239.2 414.66C240.655 414.211 242.008 413.481 243.181 412.509C244.354 411.537 245.324 410.344 246.035 408.997C246.746 407.651 247.185 406.177 247.327 404.661C247.468 403.144 247.31 401.615 246.86 400.16L206.86 270.77L162.17 247.15Z" fill="#F48482"/>
<path opacity="0.8" d="M162.17 247.15L79.6698 272.64C78.2134 273.087 76.8595 273.817 75.6856 274.789C74.5117 275.76 73.5408 276.953 72.8284 278.3C72.116 279.646 71.6762 281.12 71.534 282.637C71.3918 284.154 71.5501 285.684 71.9998 287.14L119.1 439.62C119.549 441.076 120.281 442.429 121.254 443.602C122.226 444.775 123.421 445.744 124.768 446.456C126.115 447.167 127.59 447.606 129.107 447.747C130.624 447.889 132.154 447.73 133.61 447.28L239.2 414.66C240.655 414.211 242.008 413.481 243.181 412.509C244.354 411.537 245.324 410.344 246.035 408.997C246.746 407.651 247.185 406.177 247.327 404.661C247.468 403.144 247.31 401.615 246.86 400.16L206.86 270.77L162.17 247.15Z" fill="white"/>
<g opacity="0.28">
<path opacity="0.28" d="M206.56 408L137.92 429.2C136.636 429.594 135.248 429.464 134.06 428.838C132.872 428.212 131.98 427.141 131.58 425.86C131.189 424.576 131.322 423.19 131.949 422.004C132.577 420.818 133.648 419.928 134.93 419.53L203.57 398.32C204.855 397.926 206.243 398.057 207.432 398.685C208.62 399.313 209.511 400.386 209.91 401.67C210.3 402.953 210.167 404.339 209.54 405.525C208.912 406.711 207.841 407.601 206.56 408Z" fill="#F48482"/>
</g>
<g opacity="0.28">
<path opacity="0.28" d="M132.69 283.58L96.3897 294.79C95.106 295.181 93.7197 295.05 92.5323 294.424C91.345 293.799 90.4527 292.73 90.0497 291.45C89.6586 290.165 89.7912 288.777 90.4187 287.59C91.0462 286.402 92.1177 285.511 93.3997 285.11L129.7 273.9C130.983 273.503 132.372 273.631 133.561 274.258C134.75 274.884 135.641 275.957 136.04 277.24C136.431 278.525 136.298 279.912 135.671 281.1C135.043 282.287 133.972 283.179 132.69 283.58Z" fill="#F48482"/>
</g>
<g opacity="0.28">
<path opacity="0.28" d="M162.31 295.47L102.31 314C101.029 314.385 99.6479 314.249 98.4666 313.621C97.2852 312.994 96.3989 311.926 95.9999 310.65C95.606 309.367 95.7363 307.981 96.3623 306.795C96.9883 305.608 98.059 304.718 99.3399 304.32L159.34 285.79C160.624 285.396 162.011 285.526 163.199 286.151C164.387 286.777 165.279 287.848 165.68 289.13C166.067 290.417 165.931 291.806 165.3 292.993C164.669 294.181 163.594 295.071 162.31 295.47Z" fill="#F48482"/>
</g>
<g opacity="0.28">
<path opacity="0.28" d="M195.81 306.16L108.25 333.16C106.967 333.554 105.581 333.424 104.395 332.798C103.208 332.172 102.318 331.101 101.92 329.82C101.528 328.536 101.659 327.15 102.285 325.963C102.91 324.775 103.98 323.883 105.26 323.48L192.82 296.48C194.102 296.089 195.487 296.22 196.673 296.846C197.858 297.472 198.749 298.541 199.15 299.82C199.544 301.104 199.414 302.491 198.788 303.679C198.162 304.867 197.091 305.759 195.81 306.16Z" fill="#F48482"/>
</g>
<g opacity="0.28">
<path opacity="0.28" d="M201.74 325.36L150.84 341.09C149.556 341.481 148.17 341.348 146.984 340.72C145.798 340.093 144.908 339.021 144.51 337.74C144.118 336.458 144.25 335.073 144.876 333.887C145.501 332.701 146.57 331.811 147.85 331.41L198.75 315.68C200.035 315.292 201.421 315.426 202.608 316.053C203.795 316.68 204.686 317.75 205.09 319.03C205.48 320.314 205.348 321.7 204.72 322.886C204.092 324.072 203.021 324.961 201.74 325.36Z" fill="#F48482"/>
</g>
<g opacity="0.28">
<path opacity="0.28" d="M127.5 348.3L114.19 352.41C112.906 352.804 111.519 352.674 110.331 352.048C109.143 351.422 108.251 350.352 107.85 349.07C107.456 347.785 107.588 346.396 108.215 345.208C108.843 344.02 109.916 343.129 111.2 342.73L124.51 338.62C125.794 338.228 127.18 338.36 128.367 338.985C129.555 339.611 130.447 340.68 130.85 341.96C131.238 343.245 131.104 344.631 130.477 345.818C129.85 347.005 128.78 347.897 127.5 348.3Z" fill="#F48482"/>
</g>
<g opacity="0.28">
<path opacity="0.28" d="M207.68 344.57L120.12 371.62C118.836 372.011 117.45 371.878 116.264 371.25C115.078 370.623 114.189 369.551 113.79 368.27C113.396 366.988 113.526 365.602 114.152 364.415C114.778 363.229 115.849 362.339 117.13 361.94L204.69 334.89C205.972 334.499 207.357 334.63 208.543 335.256C209.729 335.882 210.619 336.951 211.02 338.23C211.414 339.514 211.284 340.901 210.658 342.089C210.032 343.277 208.962 344.169 207.68 344.57Z" fill="#F48482"/>
</g>
<g opacity="0.28">
<path opacity="0.28" d="M179.82 374.21L126.05 390.82C124.768 391.211 123.383 391.08 122.197 390.454C121.011 389.828 120.121 388.759 119.72 387.48C119.328 386.196 119.46 384.81 120.085 383.623C120.711 382.435 121.78 381.543 123.06 381.14L176.83 364.53C178.115 364.139 179.502 364.272 180.69 364.899C181.878 365.527 182.769 366.598 183.17 367.88C183.564 369.164 183.432 370.551 182.804 371.738C182.176 372.924 181.103 373.814 179.82 374.21Z" fill="#F48482"/>
</g>
<g opacity="0.28">
<path opacity="0.28" d="M213.61 363.78L199.26 368.21C197.975 368.601 196.587 368.468 195.4 367.841C194.212 367.213 193.321 366.142 192.92 364.86C192.529 363.576 192.662 362.19 193.29 361.004C193.917 359.818 194.989 358.929 196.27 358.53L210.62 354.1C211.902 353.706 213.288 353.836 214.475 354.462C215.661 355.088 216.551 356.159 216.95 357.44C217.344 358.724 217.214 360.111 216.588 361.299C215.962 362.487 214.892 363.379 213.61 363.78Z" fill="#F48482"/>
</g>
<g opacity="0.28">
<path opacity="0.28" d="M219.54 383L132 410C130.715 410.394 129.326 410.262 128.138 409.634C126.949 409.007 126.058 407.933 125.66 406.65C125.266 405.366 125.398 403.979 126.026 402.792C126.654 401.606 127.727 400.716 129.01 400.32L216.56 373.27C217.845 372.881 219.231 373.015 220.418 373.643C221.605 374.27 222.496 375.339 222.9 376.62C223.101 377.259 223.173 377.932 223.113 378.6C223.052 379.267 222.86 379.916 222.548 380.509C222.236 381.102 221.809 381.628 221.293 382.055C220.776 382.483 220.181 382.804 219.54 383Z" fill="#F48482"/>
</g>
<path d="M257.07 258.23L170.89 263.55C169.367 263.64 167.878 264.03 166.506 264.697C165.134 265.364 163.908 266.295 162.896 267.437C161.885 268.578 161.108 269.908 160.611 271.35C160.114 272.792 159.906 274.318 160 275.84L169.83 435.12C169.922 436.643 170.313 438.134 170.982 439.506C171.65 440.878 172.583 442.104 173.727 443.115C174.87 444.125 176.202 444.901 177.646 445.396C179.089 445.891 180.617 446.096 182.14 446L292.44 439.19C293.961 439.098 295.448 438.707 296.818 438.04C298.187 437.372 299.412 436.441 300.42 435.299C301.429 434.157 302.203 432.828 302.697 431.386C303.191 429.945 303.396 428.421 303.3 426.9L295 291.73L257.07 258.23Z" fill="#F48482"/>
<path opacity="0.8" d="M257.07 258.23L170.89 263.55C169.367 263.64 167.878 264.03 166.506 264.697C165.134 265.364 163.908 266.295 162.896 267.437C161.885 268.578 161.108 269.908 160.611 271.35C160.114 272.792 159.906 274.318 160 275.84L169.83 435.12C169.922 436.643 170.313 438.134 170.982 439.506C171.65 440.878 172.583 442.104 173.727 443.115C174.87 444.125 176.202 444.901 177.646 445.396C179.089 445.891 180.617 446.096 182.14 446L292.44 439.19C293.961 439.098 295.448 438.707 296.818 438.04C298.187 437.372 299.412 436.441 300.42 435.299C301.429 434.157 302.203 432.828 302.697 431.386C303.191 429.945 303.396 428.421 303.3 426.9L295 291.73L257.07 258.23Z" fill="white"/>
<g opacity="0.22">
<path opacity="0.22" d="M262.28 425L190.57 429.43C189.23 429.506 187.915 429.05 186.911 428.16C185.906 427.27 185.295 426.019 185.21 424.68C185.133 423.341 185.588 422.025 186.476 421.02C187.363 420.014 188.612 419.4 189.95 419.31L261.66 414.89C263 414.81 264.316 415.264 265.323 416.152C266.329 417.04 266.943 418.291 267.03 419.63C267.109 420.971 266.654 422.289 265.764 423.296C264.874 424.302 263.621 424.915 262.28 425Z" fill="#F48482"/>
</g>
<g opacity="0.22">
<path opacity="0.22" d="M219.84 286.68L181.91 289C180.571 289.077 179.255 288.622 178.25 287.734C177.244 286.847 176.63 285.598 176.54 284.26C176.463 282.919 176.919 281.603 177.809 280.597C178.698 279.591 179.95 278.977 181.29 278.89L219.22 276.55C220.558 276.471 221.874 276.925 222.878 277.813C223.883 278.701 224.495 279.952 224.58 281.29C224.665 282.633 224.213 283.955 223.324 284.965C222.436 285.976 221.182 286.593 219.84 286.68Z" fill="#F48482"/>
</g>
<g opacity="0.22">
<path opacity="0.22" d="M245.82 305.22L183.15 309.08C181.81 309.162 180.491 308.709 179.485 307.821C178.478 306.932 177.865 305.68 177.78 304.34C177.7 302.999 178.156 301.681 179.046 300.674C179.936 299.668 181.189 299.055 182.53 298.97L245.19 295.11C246.53 295.028 247.848 295.481 248.855 296.37C249.862 297.258 250.475 298.51 250.56 299.85C250.639 301.19 250.185 302.506 249.297 303.513C248.409 304.519 247.159 305.133 245.82 305.22Z" fill="#F48482"/>
</g>
<g opacity="0.22">
<path opacity="0.22" d="M275.85 323.51L184.39 329.15C183.046 329.232 181.724 328.779 180.714 327.888C179.703 326.998 179.087 325.744 179 324.4C178.92 323.061 179.374 321.746 180.263 320.741C181.151 319.737 182.401 319.125 183.74 319.04L275.21 313.39C276.549 313.313 277.865 313.77 278.869 314.66C279.873 315.55 280.485 316.801 280.57 318.14C280.649 319.477 280.198 320.79 279.314 321.796C278.43 322.802 277.185 323.418 275.85 323.51Z" fill="#F48482"/>
</g>
<g opacity="0.22">
<path opacity="0.22" d="M277.09 343.57L223.92 346.85C222.58 346.929 221.264 346.475 220.257 345.587C219.251 344.699 218.637 343.449 218.55 342.11C218.468 340.769 218.921 339.451 219.809 338.444C220.698 337.438 221.95 336.825 223.29 336.74L276.46 333.46C277.8 333.378 279.119 333.831 280.125 334.719C281.132 335.608 281.745 336.86 281.83 338.2C281.909 339.539 281.456 340.856 280.568 341.862C279.679 342.868 278.429 343.482 277.09 343.57Z" fill="#F48482"/>
</g>
<g opacity="0.22">
<path opacity="0.22" d="M199.53 348.35L185.62 349.21C184.281 349.289 182.966 348.835 181.961 347.947C180.957 347.058 180.345 345.808 180.26 344.47C180.18 343.13 180.634 341.813 181.522 340.807C182.411 339.801 183.661 339.187 185 339.1L198.91 338.24C200.251 338.163 201.567 338.619 202.573 339.509C203.579 340.399 204.192 341.65 204.28 342.99C204.357 344.329 203.9 345.645 203.01 346.649C202.12 347.653 200.869 348.265 199.53 348.35Z" fill="#F48482"/>
</g>
<g opacity="0.22">
<path opacity="0.22" d="M278.33 363.63L186.86 369.27C185.52 369.35 184.203 368.896 183.197 368.008C182.191 367.119 181.577 365.869 181.49 364.53C181.413 363.189 181.869 361.873 182.759 360.867C183.649 359.861 184.9 359.248 186.24 359.16L277.7 353.52C279.041 353.441 280.359 353.896 281.366 354.786C282.372 355.676 282.985 356.929 283.07 358.27C283.149 359.609 282.695 360.924 281.807 361.929C280.918 362.933 279.668 363.545 278.33 363.63Z" fill="#F48482"/>
</g>
<g opacity="0.22">
<path opacity="0.22" d="M244.27 385.87L188.1 389.34C186.759 389.416 185.443 388.96 184.437 388.071C183.431 387.181 182.817 385.93 182.73 384.59C182.653 383.25 183.11 381.935 184 380.93C184.89 379.926 186.141 379.315 187.48 379.23L243.65 375.76C244.99 375.683 246.305 376.14 247.309 377.03C248.314 377.919 248.925 379.171 249.01 380.51C249.092 381.849 248.639 383.166 247.75 384.171C246.861 385.176 245.609 385.787 244.27 385.87Z" fill="#F48482"/>
</g>
<g opacity="0.22">
<path opacity="0.22" d="M279.56 383.7L264.56 384.62C263.221 384.699 261.906 384.245 260.901 383.357C259.897 382.469 259.285 381.218 259.2 379.88C259.118 378.54 259.571 377.222 260.459 376.215C261.348 375.208 262.6 374.595 263.94 374.51L278.94 373.59C280.28 373.508 281.598 373.961 282.605 374.85C283.612 375.738 284.225 376.99 284.31 378.33C284.387 379.671 283.93 380.987 283.041 381.993C282.151 382.999 280.9 383.613 279.56 383.7Z" fill="#F48482"/>
</g>
<g opacity="0.22">
<path opacity="0.22" d="M280.8 403.76L189.34 409.4C188 409.479 186.683 409.026 185.677 408.138C184.671 407.249 184.057 405.999 183.97 404.66C183.89 403.32 184.344 402.004 185.232 400.997C186.12 399.991 187.371 399.377 188.71 399.29L280.18 393.65C281.519 393.571 282.834 394.025 283.839 394.913C284.843 395.802 285.455 397.052 285.54 398.39C285.622 399.73 285.169 401.049 284.28 402.055C283.392 403.062 282.14 403.675 280.8 403.76Z" fill="#F48482"/>
</g>
<path opacity="0.22" d="M257.07 258.23L258.56 282.35C258.653 283.871 259.045 285.358 259.713 286.728C260.381 288.097 261.312 289.321 262.453 290.331C263.594 291.34 264.923 292.115 266.364 292.611C267.805 293.106 269.329 293.313 270.85 293.22L295 291.73L257.07 258.23Z" fill="#F48482"/>
<path opacity="0.5" d="M228.85 318.4C228.835 317.244 228.588 316.103 228.125 315.044C227.661 313.985 226.99 313.03 226.151 312.235C225.312 311.439 224.322 310.82 223.24 310.414C222.158 310.008 221.005 309.823 219.85 309.87H139.75C133.68 309.87 127.75 314.8 126.61 320.87L95 482.82C93.82 488.89 97.78 493.82 103.85 493.82H357.85C363.92 493.82 369.8 488.9 370.99 482.82L397.06 349.32C398.24 343.24 394.28 338.32 388.21 338.32H250C238 338.32 229.26 330.06 228.85 318.4Z" fill="#F48482"/>
</g>
<defs>
<clipPath id="clip0">
<rect width="500" height="500" fill="white"/>
</clipPath>
</defs>
</svg>
