<svg width="42" height="42" viewBox="0 0 42 42" fill="none" xmlns="http://www.w3.org/2000/svg">
<path d="M32.55 9.44995L8.92505 33.075" stroke="white" stroke-width="4" stroke-linecap="round" stroke-linejoin="round"/>
<path d="M8.92505 9.44995L32.55 33.075" stroke="white" stroke-width="4" stroke-linecap="round" stroke-linejoin="round"/>
</svg>
