<svg width="200" height="200" viewBox="0 0 200 200" fill="none" xmlns="http://www.w3.org/2000/svg">
<path d="M162.5 200H37.5C16.7875 200 0 183.212 0 162.5V37.5C0 16.7875 16.7875 0 37.5 0H162.5C183.212 0 200 16.7875 200 37.5V162.5C200 183.212 183.212 200 162.5 200Z" fill="#FFE6E2"/>
<path d="M76.7095 71.8514C76.7095 64.8492 79.3149 58.4472 83.5938 53.5156H38.2999C28.1389 53.5156 19.9219 61.7182 19.9219 71.8514V108.533C19.9219 118.666 28.1389 126.869 38.2899 126.869H46.6372V141.873C46.6372 143.874 47.8397 145.675 49.6434 146.475C50.3148 146.745 50.9762 146.875 51.6476 146.875C52.9202 146.875 54.1227 146.405 55.0546 145.545L75.2966 126.869H83.5837C79.3049 121.937 76.6995 115.535 76.6995 108.533V71.8514H76.7095Z" fill="#F48482"/>
<path d="M148.398 146.875C147.168 146.875 145.947 146.415 145.007 145.555L124.771 126.869H105.055C94.9413 126.869 86.7188 118.646 86.7188 108.533V71.8514C86.7188 61.7382 94.9413 53.5156 105.055 53.5156H161.742C171.856 53.5156 180.078 61.7382 180.078 71.8514V108.533C180.078 118.646 171.856 126.869 161.742 126.869H153.41V141.873C153.41 143.864 152.229 145.655 150.419 146.455C149.759 146.745 149.078 146.875 148.398 146.875Z" fill="#F48482"/>
</svg>
