<svg width="200" height="200" viewBox="0 0 200 200" fill="none" xmlns="http://www.w3.org/2000/svg">
<path d="M162.5 200H37.5C16.7875 200 0 183.212 0 162.5V37.5C0 16.7875 16.7875 0 37.5 0H162.5C183.212 0 200 16.7875 200 37.5V162.5C200 183.212 183.212 200 162.5 200Z" fill="#FFE6E2"/>
<path d="M100 107.331C103.875 103.25 106.25 97.7501 106.25 91.6626V111.081C104.581 110.625 102.831 110.413 101.044 110.413H100V107.331Z" fill="#FFA7A5"/>
<path d="M150 58.3313V120.831C150 125.413 146.25 129.163 141.669 129.163H122.669C122.375 126.956 121.712 124.831 120.794 122.913H138.544C141.419 122.913 143.75 120.581 143.75 117.706V61.4563C143.75 58.5813 141.419 56.25 138.544 56.25C137.956 56.25 137.5 56.7062 137.5 57.2937C137.5 61.2937 134.206 64.5875 130.206 64.5875H119.788C115.788 64.5875 112.494 61.2937 112.494 57.2937C112.5 56.7062 112.044 56.25 111.456 56.25C108.581 56.25 106.25 58.5813 106.25 61.4563V91.6625C106.25 85.5813 103.875 80.0813 100 75.9563V58.3313C100 53.75 103.75 50 108.331 50H141.663C146.25 50 150 53.75 150 58.3313Z" fill="#FFA7A5"/>
<path d="M125 87.5C121.556 87.5 118.75 84.6938 118.75 81.25C118.75 77.8063 121.556 75 125 75C128.444 75 131.25 77.8063 131.25 81.25C131.25 84.6938 128.444 87.5 125 87.5Z" fill="#FFA7A5"/>
<path d="M134.375 104.169H115.625C113.9 104.169 112.5 102.769 112.5 101.044C112.5 95.8752 116.706 91.6689 121.875 91.6689H128.125C133.294 91.6689 137.5 95.8752 137.5 101.044C137.5 102.769 136.1 104.169 134.375 104.169Z" fill="#FFA7A5"/>
<path d="M83.3313 108.331C74.1438 108.331 66.6626 100.856 66.6626 91.6625C66.6626 82.4688 74.1438 75 83.3313 75C92.5188 75 100 82.475 100 91.6688C100 100.863 92.5251 108.331 83.3313 108.331Z" fill="#F48482"/>
<path d="M113.544 150H53.125C51.4 150 50 148.6 50 146.875V132.294C50 123.675 57.0063 116.669 65.625 116.669H101.044C109.662 116.669 116.669 123.675 116.669 132.294V146.875C116.669 148.6 115.269 150 113.544 150Z" fill="#F48482"/>
</svg>
